{
    "offline_jets": false,
    "dumper": { 
        "jet_collection": "tempJets",
        "calibration": {},
        "selection": {
            "minimum_jet_pt": 20000,
            "maximum_jet_absolute_eta": 2.5
        },
        "vertex_collection": "HLT_IDVertex_FS",
        "dl2_configs": [
            {
                "nn_file_path": "BTagging/20220813trig/gn1/antikt4empflow/network.onnx",
                "engine":"gnn"
            }
        ],
        "variables": {
            "btagging": {
                "halves": [
                    "GN120220813_pb",
                    "GN120220813_pc",
                    "GN120220813_pu",
                    "DL1d20211216_pb",
                    "DL1d20211216_pc",
                    "DL1d20211216_pu"
                ]
            },
            "jet" : {
                "floats": [
                    "HadronConeExclTruthLabelPt",
                    "pt"
                ],
                "ints": [
                "HadronConeExclTruthLabelID"
                ],
                "halves": [
                    "eta",
                    "deltaRToPFlowJet",
                    "deltaRToEMTopoJet",
                    "dips20211116_pb",
                    "dips20211116_pc",
                    "dips20211116_pu",
                    "fastDips_pb",
                    "fastDips_pc",
                    "fastDips_pu",
                    "fastDIPS20211215_pb",
                    "fastDIPS20211215_pc",
                    "fastDIPS20211215_pu",
                    "GN120230331_pb",
                    "GN120230331_pc",
                    "GN120230331_pu"
                ]
            },
            "default_mapping": {
                "file": "fragments/default-mapping.json"
            }
        },
        "tracks": [
            {
                "file": "fragments/tracks-loose-on-jet.json",
                "btagging_link": "btaggingLink",
                "input_name": "BTagTrackToJetAssociator",
                "output_name": "tracks"
            },
            {
                "file": "fragments/tracks-loose-on-jet.json",
                "input_name": "FsTracks",
                "output_name": "fs_tracks"
            }
        ],
        "truths": [
            {
                "file": "fragments/overlap-leptons.json"
            }
        ],
        "decorate": {
            "jet_aug": false,
            "btag_jes": true,
            "soft_muon": false,
            "track_sv_info": false
        },
        "btagging_link": "btaggingLink"
    }
}
