# signal 
mc20_13TeV.801471.Py8EG_A14NNPDF23LO_VHbb_flatmasspT.deriv.DAOD_FTAG1.e8441_s3681_r13144_p5488

# QCD background 
mc20_13TeV.364703.Pythia8EvtGen_A14NNPDF23LO_jetjet_JZ3WithSW.deriv.DAOD_FTAG1.e7142_s3681_r13144_p5488
mc20_13TeV.364704.Pythia8EvtGen_A14NNPDF23LO_jetjet_JZ4WithSW.deriv.DAOD_FTAG1.e7142_s3681_r13144_p5488
mc20_13TeV.364705.Pythia8EvtGen_A14NNPDF23LO_jetjet_JZ5WithSW.deriv.DAOD_FTAG1.e7142_s3681_r13144_p5488