mc21_14TeV.601229.PhPy8EG_A14_ttbar_hdamp258p75_SingleLep.deriv.DAOD_FTAG1.e8481_s4149_r14700_r14702_p5799
mc21_14TeV.601230.PhPy8EG_A14_ttbar_hdamp258p75_dil.deriv.DAOD_FTAG1.e8481_s4149_r14700_r14702_p5799
mc21_14TeV.800030.Py8EG_A14NNPDF23LO_flatpT_Zprime_Extended.deriv.DAOD_FTAG1.e8481_s4149_r14700_r14702_p5799
